{
  "properties": {
    "id": {
      "description": "",
      "type": "string"
    },
    "calendarEvents": {
      "description": "An unordered collection of calendarDateCalendarEvents. The type of scheduled or unscheduled event for the day.",
      "items": {
        "$ref": "edFi_calendarDateCalendarEvent"
      },
      "type": "array"
    },
    "date": {
      "description": "The month, day, and year of the CalendarEvent.",
      "format": "date",
      "x-Ed-Fi-isIdentity": true,
      "type": "string"
    },
    "calendarReference": {
      "$ref": "edFi_calendarReference"
    },
    "_etag": {
      "description": "A unique system-generated value that identifies the version of the resource.",
      "type": "string"
    }
  },
  "required": [
    "date",
    "id",
    "calendarEvents",
    "calendarReference"
  ],
  "type": "object",
  "$schema": "http://json-schema.org/schema#"
}