{
  "properties": {
    "credentialEndorsement": {
      "description": "Endorsements are attachments to teaching certificates and indicate areas of specialization.",
      "x-Ed-Fi-isIdentity": true,
      "maxLength": 255,
      "type": "string"
    }
  },
  "required": [
    "credentialEndorsement"
  ],
  "type": "object",
  "$schema": "http://json-schema.org/schema#"
}