{
  "properties": {
    "educationOrganizationId": {
      "description": "The identifier assigned to an education organization.",
      "format": "int32",
      "type": "integer"
    },
    "link": {
      "$ref": "link"
    }
  },
  "required": [
    "educationOrganizationId"
  ],
  "type": "object",
  "$schema": "http://json-schema.org/schema#"
}