{
  "properties": {
    "homelessProgramServiceDescriptor": {
      "description": "Indicates the service being provided to the student by the Homeless Program.",
      "x-Ed-Fi-isIdentity": true,
      "maxLength": 306,
      "type": "string"
    },
    "primaryIndicator": {
      "description": "True if service is a primary service.",
      "type": "boolean"
    },
    "serviceBeginDate": {
      "description": "First date the Student was in this option for the current school year.",
      "format": "date",
      "type": "string"
    },
    "serviceEndDate": {
      "description": "Last date the Student was in this option for the current school year.",
      "format": "date",
      "type": "string"
    }
  },
  "required": [
    "homelessProgramServiceDescriptor"
  ],
  "type": "object",
  "$schema": "http://json-schema.org/schema#"
}