{
  "properties": {
    "id": {
      "description": "",
      "type": "string"
    },
    "addresses": {
      "description": "An unordered collection of educationOrganizationAddresses. The set of elements that describes the physical location of the education entity, including the street address, city, state, ZIP code, and ZIP code + 4.",
      "items": {
        "$ref": "edFi_educationOrganizationAddress"
      },
      "type": "array"
    },
    "categories": {
      "description": "An unordered collection of educationOrganizationCategories. The classification of the education agency within the geographic boundaries of a state according to the level of administrative and operational control granted by the state.",
      "items": {
        "$ref": "edFi_educationOrganizationCategory"
      },
      "type": "array"
    },
    "stateEducationAgencyId": {
      "description": "The identifier assigned to a state education agency.",
      "format": "int32",
      "x-Ed-Fi-isIdentity": true,
      "type": "integer"
    },
    "accountabilities": {
      "description": "An unordered collection of stateEducationAgencyAccountabilities. This entity maintains information about federal reporting and accountability for state education agencies.",
      "items": {
        "$ref": "edFi_stateEducationAgencyAccountability"
      },
      "type": "array"
    },
    "federalFunds": {
      "description": "An unordered collection of stateEducationAgencyFederalFunds. Contains the information about the reception and use of federal funds for reporting purposes.",
      "items": {
        "$ref": "edFi_stateEducationAgencyFederalFunds"
      },
      "type": "array"
    },
    "identificationCodes": {
      "description": "An unordered collection of educationOrganizationIdentificationCodes. A unique number or alphanumeric code assigned to an education organization by a school, school system, a state, or other agency or entity.",
      "items": {
        "$ref": "edFi_educationOrganizationIdentificationCode"
      },
      "type": "array"
    },
    "institutionTelephones": {
      "description": "An unordered collection of educationOrganizationInstitutionTelephones. The 10-digit telephone number, including the area code, for the education entity.",
      "items": {
        "$ref": "edFi_educationOrganizationInstitutionTelephone"
      },
      "type": "array"
    },
    "internationalAddresses": {
      "description": "An unordered collection of educationOrganizationInternationalAddresses. The set of elements that describes the international physical location of the education entity.",
      "items": {
        "$ref": "edFi_educationOrganizationInternationalAddress"
      },
      "type": "array"
    },
    "nameOfInstitution": {
      "description": "The full, legally accepted name of the institution.",
      "maxLength": 75,
      "type": "string"
    },
    "operationalStatusDescriptor": {
      "description": "The current operational status of the EducationOrganization (e.g., active, inactive).",
      "maxLength": 306,
      "type": "string"
    },
    "shortNameOfInstitution": {
      "description": "A short name for the institution.",
      "maxLength": 75,
      "type": "string"
    },
    "webSite": {
      "description": "The public web site address (URL) for the EducationOrganization.",
      "maxLength": 255,
      "type": "string"
    },
    "_etag": {
      "description": "A unique system-generated value that identifies the version of the resource.",
      "type": "string"
    }
  },
  "required": [
    "stateEducationAgencyId",
    "id",
    "nameOfInstitution",
    "addresses",
    "categories"
  ],
  "type": "object",
  "$schema": "http://json-schema.org/schema#"
}