{
  "properties": {
    "programReference": {
      "$ref": "edFi_programReference"
    }
  },
  "required": [
    "programReference"
  ],
  "type": "object",
  "$schema": "http://json-schema.org/schema#"
}