{
  "properties": {
    "telephoneNumberTypeDescriptor": {
      "description": "The type of communication number listed for an individual or organization.",
      "x-Ed-Fi-isIdentity": true,
      "maxLength": 306,
      "type": "string"
    },
    "doNotPublishIndicator": {
      "description": "An indication that the telephone number should not be published.",
      "type": "boolean"
    },
    "orderOfPriority": {
      "description": "The order of priority assigned to telephone numbers to define which number to attempt first, second, etc.",
      "format": "int32",
      "type": "integer"
    },
    "telephoneNumber": {
      "description": "The telephone number including the area code, and extension, if applicable.",
      "maxLength": 24,
      "type": "string"
    },
    "textMessageCapabilityIndicator": {
      "description": "An indication that the telephone number is technically capable of sending and receiving Short Message Service (SMS) text messages.",
      "type": "boolean"
    }
  },
  "required": [
    "telephoneNumberTypeDescriptor",
    "telephoneNumber"
  ],
  "type": "object",
  "$schema": "http://json-schema.org/schema#"
}