{
  "properties": {
    "educationOrganizationId": {
      "description": "The identifier assigned to an education organization.",
      "format": "int32",
      "type": "integer"
    },
    "gradingPeriodDescriptor": {
      "description": "The name of the period for which grades are reported.",
      "maxLength": 306,
      "type": "string"
    },
    "gradingPeriodSchoolId": {
      "description": "The identifier assigned to a school.",
      "format": "int32",
      "type": "integer"
    },
    "gradingPeriodSchoolYear": {
      "description": "The identifier for the grading period school year.",
      "format": "int32",
      "type": "integer"
    },
    "gradingPeriodSequence": {
      "description": "The sequential order of this period relative to other periods.",
      "format": "int32",
      "type": "integer"
    },
    "studentUniqueId": {
      "description": "A unique alphanumeric code assigned to a student.",
      "maxLength": 32,
      "type": "string"
    },
    "link": {
      "$ref": "link"
    }
  },
  "required": [
    "educationOrganizationId",
    "gradingPeriodDescriptor",
    "gradingPeriodSchoolId",
    "gradingPeriodSchoolYear",
    "gradingPeriodSequence",
    "studentUniqueId"
  ],
  "type": "object",
  "$schema": "http://json-schema.org/schema#"
}