{
  "properties": {
    "derivativeSourceLearningResourceMetadataURI": {
      "description": "The URI (typical a URL) pointing to the metadata entry in a LRMI metadata repository, which describes this content item.",
      "x-Ed-Fi-isIdentity": true,
      "maxLength": 255,
      "type": "string"
    }
  },
  "required": [
    "derivativeSourceLearningResourceMetadataURI"
  ],
  "type": "object",
  "$schema": "http://json-schema.org/schema#"
}