{
  "properties": {
    "raceDescriptor": {
      "description": "The general racial category which most clearly reflects the individual's recognition of his or her community or with which the individual most identifies. The data model allows for multiple entries so that each individual can specify all appropriate races.",
      "x-Ed-Fi-isIdentity": true,
      "maxLength": 306,
      "type": "string"
    }
  },
  "required": [
    "raceDescriptor"
  ],
  "type": "object",
  "$schema": "http://json-schema.org/schema#"
}