{
  "properties": {
    "assessmentReference": {
      "$ref": "edFi_assessmentReference"
    },
    "scores": {
      "description": "An unordered collection of graduationPlanRequiredAssessmentScores. Score required to be met or exceeded.",
      "items": {
        "$ref": "edFi_graduationPlanRequiredAssessmentScore"
      },
      "type": "array"
    },
    "performanceLevel": {
      "$ref": "edFi_graduationPlanRequiredAssessmentPerformanceLevel"
    }
  },
  "required": [
    "assessmentReference"
  ],
  "type": "object",
  "$schema": "http://json-schema.org/schema#"
}