{
  "properties": {
    "addressTypeDescriptor": {
      "description": "The type of address listed for an individual or organization. For example:  Physical Address, Mailing Address, Home Address, etc.)",
      "x-Ed-Fi-isIdentity": true,
      "maxLength": 306,
      "type": "string"
    },
    "countryDescriptor": {
      "description": "The name of the country. It is strongly recommended that entries use only ISO 3166 2-letter country codes.",
      "maxLength": 306,
      "type": "string"
    },
    "addressLine1": {
      "description": "The first line of the address.",
      "maxLength": 150,
      "type": "string"
    },
    "addressLine2": {
      "description": "The second line of the address.",
      "maxLength": 150,
      "type": "string"
    },
    "addressLine3": {
      "description": "The third line of the address.",
      "maxLength": 150,
      "type": "string"
    },
    "addressLine4": {
      "description": "The fourth line of the address.",
      "maxLength": 150,
      "type": "string"
    },
    "beginDate": {
      "description": "The first date the address is valid. For physical addresses, the date the person moved to that address.",
      "format": "date",
      "type": "string"
    },
    "endDate": {
      "description": "The last date the address is valid. For physical addresses, this would be the date the person moved from that address.",
      "format": "date",
      "type": "string"
    },
    "latitude": {
      "description": "The geographic latitude of the physical address.",
      "maxLength": 20,
      "type": "string"
    },
    "longitude": {
      "description": "The geographic longitude of the physical address.",
      "maxLength": 20,
      "type": "string"
    }
  },
  "required": [
    "addressTypeDescriptor",
    "countryDescriptor",
    "addressLine1"
  ],
  "type": "object",
  "$schema": "http://json-schema.org/schema#"
}