{
  "properties": {
    "academicSubjectDescriptor": {
      "description": "The teaching field taught by an individual, for example English/Language Arts, Reading, Mathematics, Science, Social Sciences, etc.",
      "x-Ed-Fi-isIdentity": true,
      "maxLength": 306,
      "type": "string"
    }
  },
  "required": [
    "academicSubjectDescriptor"
  ],
  "type": "object",
  "$schema": "http://json-schema.org/schema#"
}