{
  "properties": {
    "courseReference": {
      "$ref": "edFi_courseReference"
    }
  },
  "required": [
    "courseReference"
  ],
  "type": "object",
  "$schema": "http://json-schema.org/schema#"
}