{
  "properties": {
    "identificationDocumentUseDescriptor": {
      "description": "The primary function of the document used for establishing identity.",
      "x-Ed-Fi-isIdentity": true,
      "maxLength": 306,
      "type": "string"
    },
    "personalInformationVerificationDescriptor": {
      "description": "The category of the document relative to its purpose.",
      "x-Ed-Fi-isIdentity": true,
      "maxLength": 306,
      "type": "string"
    },
    "issuerCountryDescriptor": {
      "description": "Country of origin of the document. It is strongly recommended that entries use only ISO 3166 2-letter country codes.",
      "maxLength": 306,
      "type": "string"
    },
    "documentExpirationDate": {
      "description": "The day when the document  expires, if null then never expires.",
      "format": "date",
      "type": "string"
    },
    "documentTitle": {
      "description": "The title of the document given by the issuer.",
      "maxLength": 60,
      "type": "string"
    },
    "issuerDocumentIdentificationCode": {
      "description": "The unique identifier on the issuer's identification system.",
      "maxLength": 60,
      "type": "string"
    },
    "issuerName": {
      "description": "Name of the entity or institution that issued the document.",
      "maxLength": 150,
      "type": "string"
    }
  },
  "required": [
    "identificationDocumentUseDescriptor",
    "personalInformationVerificationDescriptor"
  ],
  "type": "object",
  "$schema": "http://json-schema.org/schema#"
}