{
  "properties": {
    "staffIdentificationSystemDescriptor": {
      "description": "A coding scheme that is used for identification and record-keeping purposes by schools, social services, or other agencies to refer to a staff member.",
      "x-Ed-Fi-isIdentity": true,
      "maxLength": 306,
      "type": "string"
    },
    "assigningOrganizationIdentificationCode": {
      "description": "The organization code or name assigning the staff Identification Code.",
      "maxLength": 60,
      "type": "string"
    },
    "identificationCode": {
      "description": "A unique number or alphanumeric code assigned to a staff member by a school, school system, a state, or other agency or entity.",
      "maxLength": 60,
      "type": "string"
    }
  },
  "required": [
    "staffIdentificationSystemDescriptor",
    "identificationCode"
  ],
  "type": "object",
  "$schema": "http://json-schema.org/schema#"
}