{
  "properties": {
    "id": {
      "description": "",
      "type": "string"
    },
    "restraintEventIdentifier": {
      "description": "A unique number or alphanumeric code assigned to a restraint event by a school, school system, state, or other agency or entity.",
      "x-Ed-Fi-isIdentity": true,
      "maxLength": 20,
      "type": "string"
    },
    "schoolReference": {
      "$ref": "edFi_schoolReference"
    },
    "studentReference": {
      "$ref": "edFi_studentReference"
    },
    "educationalEnvironmentDescriptor": {
      "description": "The setting where the RestraintEvent was exercised.",
      "maxLength": 306,
      "type": "string"
    },
    "eventDate": {
      "description": "Month, day, and year of the RestraintEvent.",
      "format": "date",
      "type": "string"
    },
    "programs": {
      "description": "An unordered collection of restraintEventPrograms. The special education program associated with the RestraintEvent.",
      "items": {
        "$ref": "edFi_restraintEventProgram"
      },
      "type": "array"
    },
    "reasons": {
      "description": "An unordered collection of restraintEventReasons. A categorization of the circumstances or reason for the RestraintEvent.",
      "items": {
        "$ref": "edFi_restraintEventReason"
      },
      "type": "array"
    },
    "_etag": {
      "description": "A unique system-generated value that identifies the version of the resource.",
      "type": "string"
    }
  },
  "required": [
    "restraintEventIdentifier",
    "eventDate",
    "id",
    "schoolReference",
    "studentReference"
  ],
  "type": "object",
  "$schema": "http://json-schema.org/schema#"
}