{
  "properties": {
    "id": {
      "description": "",
      "type": "string"
    },
    "interventionStudyIdentificationCode": {
      "description": "A unique number or alphanumeric code assigned to an intervention study.",
      "x-Ed-Fi-isIdentity": true,
      "maxLength": 60,
      "type": "string"
    },
    "educationOrganizationReference": {
      "$ref": "edFi_educationOrganizationReference"
    },
    "interventionPrescriptionReference": {
      "$ref": "edFi_interventionPrescriptionReference"
    },
    "appropriateGradeLevels": {
      "description": "An unordered collection of interventionStudyAppropriateGradeLevels. Grade levels participating in this study.",
      "items": {
        "$ref": "edFi_interventionStudyAppropriateGradeLevel"
      },
      "type": "array"
    },
    "appropriateSexes": {
      "description": "An unordered collection of interventionStudyAppropriateSexes. Sexes participating in this study. If omitted, considered generally applicable.",
      "items": {
        "$ref": "edFi_interventionStudyAppropriateSex"
      },
      "type": "array"
    },
    "deliveryMethodDescriptor": {
      "description": "The way in which an intervention was implemented: individual, small group, whole class, or whole school.",
      "maxLength": 306,
      "type": "string"
    },
    "educationContents": {
      "description": "An unordered collection of interventionStudyEducationContents. Relates the education content source to the education content.",
      "items": {
        "$ref": "edFi_interventionStudyEducationContent"
      },
      "type": "array"
    },
    "interventionClassDescriptor": {
      "description": "The way in which an intervention is used: curriculum, supplement, or practice.",
      "maxLength": 306,
      "type": "string"
    },
    "interventionEffectivenesses": {
      "description": "An unordered collection of interventionStudyInterventionEffectivenesses. Measurement of the effectiveness of the InterventionStudy per diagnosis.",
      "items": {
        "$ref": "edFi_interventionStudyInterventionEffectiveness"
      },
      "type": "array"
    },
    "learningResourceMetadataURIs": {
      "description": "An unordered collection of interventionStudyLearningResourceMetadataURIs. The URI (typical a URL) pointing to the metadata entry in a LRMI metadata repository, which describes this content item.",
      "items": {
        "$ref": "edFi_interventionStudyLearningResourceMetadataURI"
      },
      "type": "array"
    },
    "participants": {
      "description": "The number of participants observed in the study.",
      "format": "int32",
      "type": "integer"
    },
    "populationServeds": {
      "description": "An unordered collection of interventionStudyPopulationServeds. A subset of students that are the focus of the InterventionStudy.",
      "items": {
        "$ref": "edFi_interventionStudyPopulationServed"
      },
      "type": "array"
    },
    "stateAbbreviations": {
      "description": "An unordered collection of interventionStudyStateAbbreviations. The abbreviation for the state (within the United States) or outlying area, the school system of which the participants of the study are considered to be a part.",
      "items": {
        "$ref": "edFi_interventionStudyStateAbbreviation"
      },
      "type": "array"
    },
    "uris": {
      "description": "An unordered collection of interventionStudyURIs. The URI (typical a URL) pointing to an education content item.",
      "items": {
        "$ref": "edFi_interventionStudyURI"
      },
      "type": "array"
    },
    "_etag": {
      "description": "A unique system-generated value that identifies the version of the resource.",
      "type": "string"
    }
  },
  "required": [
    "interventionStudyIdentificationCode",
    "deliveryMethodDescriptor",
    "interventionClassDescriptor",
    "id",
    "participants",
    "educationOrganizationReference",
    "interventionPrescriptionReference"
  ],
  "type": "object",
  "$schema": "http://json-schema.org/schema#"
}