{
  "properties": {
    "schoolId": {
      "description": "The identifier assigned to a school.",
      "format": "int32",
      "type": "integer"
    },
    "weekIdentifier": {
      "description": "The school label for the week.",
      "maxLength": 80,
      "type": "string"
    },
    "link": {
      "$ref": "link"
    }
  },
  "required": [
    "schoolId",
    "weekIdentifier"
  ],
  "type": "object",
  "$schema": "http://json-schema.org/schema#"
}