{
  "properties": {
    "id": {
      "description": "",
      "type": "string"
    },
    "schoolYear": {
      "description": "Key for School Year",
      "format": "int32",
      "x-Ed-Fi-isIdentity": true,
      "type": "integer"
    },
    "currentSchoolYear": {
      "description": "The code for the current school year.",
      "type": "boolean"
    },
    "schoolYearDescription": {
      "description": "The description for the SchoolYear type.",
      "maxLength": 50,
      "type": "string"
    },
    "_etag": {
      "description": "A unique system-generated value that identifies the version of the resource.",
      "type": "string"
    }
  },
  "required": [
    "schoolYear",
    "currentSchoolYear",
    "id",
    "schoolYearDescription"
  ],
  "type": "object",
  "$schema": "http://json-schema.org/schema#"
}