{
  "properties": {
    "gradeLevelDescriptor": {
      "description": "The grade level(s) certified for teaching.",
      "x-Ed-Fi-isIdentity": true,
      "maxLength": 306,
      "type": "string"
    }
  },
  "required": [
    "gradeLevelDescriptor"
  ],
  "type": "object",
  "$schema": "http://json-schema.org/schema#"
}