{
  "properties": {
    "schoolCategoryDescriptor": {
      "description": "The one or more categories of school. For example: High School, Middle School, and/or Elementary School.",
      "x-Ed-Fi-isIdentity": true,
      "maxLength": 306,
      "type": "string"
    }
  },
  "required": [
    "schoolCategoryDescriptor"
  ],
  "type": "object",
  "$schema": "http://json-schema.org/schema#"
}