{
  "properties": {
    "diagnosisDescriptor": {
      "description": "Targeted purpose of the intervention (e.g., attendance issue, dropout risk) for which the effectiveness is measured.",
      "x-Ed-Fi-isIdentity": true,
      "maxLength": 306,
      "type": "string"
    },
    "gradeLevelDescriptor": {
      "description": "Grade level for which effectiveness is measured.",
      "x-Ed-Fi-isIdentity": true,
      "maxLength": 306,
      "type": "string"
    },
    "populationServedDescriptor": {
      "description": "Population for which effectiveness is measured.",
      "x-Ed-Fi-isIdentity": true,
      "maxLength": 306,
      "type": "string"
    },
    "interventionEffectivenessRatingDescriptor": {
      "description": "An intervention demonstrates effectiveness if the research has shown that the program caused an improvement in outcomes. Values: positive effects, potentially positive effects, mixed effects, potentially negative effects, negative effects, and no discernible effects.",
      "maxLength": 306,
      "type": "string"
    },
    "improvementIndex": {
      "description": "Along a percentile distribution of students, the improvement index represents the change in an average student's percentile rank that is considered to be due to the intervention.",
      "format": "int32",
      "type": "integer"
    }
  },
  "required": [
    "diagnosisDescriptor",
    "gradeLevelDescriptor",
    "populationServedDescriptor",
    "interventionEffectivenessRatingDescriptor"
  ],
  "type": "object",
  "$schema": "http://json-schema.org/schema#"
}