{
  "properties": {
    "generalStudentProgramAssociationReference": {
      "$ref": "edFi_generalStudentProgramAssociationReference"
    }
  },
  "required": [
    "generalStudentProgramAssociationReference"
  ],
  "type": "object",
  "$schema": "http://json-schema.org/schema#"
}