{
  "properties": {
    "credentialIdentifier": {
      "description": "Identifier or serial number assigned to the credential.",
      "maxLength": 60,
      "type": "string"
    },
    "stateOfIssueStateAbbreviationDescriptor": {
      "description": "The abbreviation for the name of the state (within the United States) or extra-state jurisdiction in which a license/credential was issued.",
      "maxLength": 306,
      "type": "string"
    },
    "link": {
      "$ref": "link"
    }
  },
  "required": [
    "credentialIdentifier",
    "stateOfIssueStateAbbreviationDescriptor"
  ],
  "type": "object",
  "$schema": "http://json-schema.org/schema#"
}