{
  "properties": {
    "postSecondaryInstitutionId": {
      "description": "The ID of the post secondary institution.",
      "format": "int32",
      "type": "integer"
    },
    "link": {
      "$ref": "link"
    }
  },
  "required": [
    "postSecondaryInstitutionId"
  ],
  "type": "object",
  "$schema": "http://json-schema.org/schema#"
}