{
  "required": [
    "visaDescriptor"
  ],
  "type": "object",
  "properties": {
    "visaDescriptor": {
      "description": "An indicator of a non-US citizen's Visa type.",
      "maxLength": 306,
      "type": "string",
      "x-Ed-Fi-isIdentity": true
    }
  },
  "$schema": "http://json-schema.org/schema#"
}