{
  "required": [
    "objectiveGradeLevelDescriptor",
    "objective",
    "id",
    "educationOrganizationReference"
  ],
  "type": "object",
  "properties": {
    "id": {
      "description": "",
      "type": "string"
    },
    "objective": {
      "description": "The designated title of the CompetencyObjective.",
      "maxLength": 60,
      "type": "string",
      "x-Ed-Fi-isIdentity": true
    },
    "objectiveGradeLevelDescriptor": {
      "description": "The grade level for which the CompetencyObjective is targeted.",
      "maxLength": 306,
      "type": "string",
      "x-Ed-Fi-isIdentity": true
    },
    "educationOrganizationReference": {
      "$ref": "edFi_educationOrganizationReference"
    },
    "competencyObjectiveId": {
      "description": "The Identifier for the CompetencyObjective.",
      "maxLength": 60,
      "type": "string"
    },
    "description": {
      "description": "The description of the student competency objective.",
      "maxLength": 1024,
      "type": "string"
    },
    "successCriteria": {
      "description": "One or more statements that describes the criteria used by teachers and students to check for attainment of a competency objective. This criteria gives clear indications as to the degree to which learning is moving through the Zone or Proximal Development toward independent achievement of the CompetencyObjective.",
      "maxLength": 150,
      "type": "string"
    },
    "_etag": {
      "description": "A unique system-generated value that identifies the version of the resource.",
      "type": "string"
    }
  },
  "$schema": "http://json-schema.org/schema#"
}