{
  "required": [
    "addressTypeDescriptor",
    "stateAbbreviationDescriptor",
    "city",
    "postalCode",
    "streetNumberName"
  ],
  "type": "object",
  "properties": {
    "addressTypeDescriptor": {
      "description": "The type of address listed for an individual or organization.    For example:  Physical Address, Mailing Address, Home Address, etc.)",
      "maxLength": 306,
      "type": "string",
      "x-Ed-Fi-isIdentity": true
    },
    "stateAbbreviationDescriptor": {
      "description": "The abbreviation for the state (within the United States) or outlying area in which an address is located.",
      "maxLength": 306,
      "type": "string"
    },
    "apartmentRoomSuiteNumber": {
      "description": "The apartment, room, or suite number of an address.",
      "maxLength": 50,
      "type": "string"
    },
    "buildingSiteNumber": {
      "description": "The number of the building on the site, if more than one building shares the same address.",
      "maxLength": 20,
      "type": "string"
    },
    "city": {
      "description": "The name of the city in which an address is located.",
      "maxLength": 30,
      "type": "string"
    },
    "countyFIPSCode": {
      "description": "The Federal Information Processing Standards (FIPS) numeric code for the county issued by the National Institute of Standards and Technology (NIST). Counties are considered to be the \"first-order subdivisions\" of each State and statistically equivalent entity, regardless of their local designations (county, parish, borough, etc.) Counties in different States will have the same code. A unique county number is created when combined with the 2-digit FIPS State Code.",
      "maxLength": 5,
      "type": "string"
    },
    "doNotPublishIndicator": {
      "description": "An indication that the address should not be published.",
      "type": "boolean"
    },
    "latitude": {
      "description": "The geographic latitude of the physical address.",
      "maxLength": 20,
      "type": "string"
    },
    "longitude": {
      "description": "The geographic longitude of the physical address.",
      "maxLength": 20,
      "type": "string"
    },
    "nameOfCounty": {
      "description": "The name of the county, parish, borough, or comparable unit (within a state) in                        'which an address is located.",
      "maxLength": 30,
      "type": "string"
    },
    "postalCode": {
      "description": "The five or nine digit zip code or overseas postal code portion of an address.",
      "maxLength": 17,
      "type": "string"
    },
    "streetNumberName": {
      "description": "The street number and street name or post office box number of an address.",
      "maxLength": 150,
      "type": "string"
    },
    "periods": {
      "description": "An unordered collection of parentAddressPeriods. The time periods for which the address is valid. For physical addresses, the periods in which the person lived at that address.",
      "type": "array",
      "items": {
        "$ref": "edFi_parentAddressPeriod"
      }
    }
  },
  "$schema": "http://json-schema.org/schema#"
}