{
  "required": [
    "calendarCode",
    "schoolId",
    "schoolYear"
  ],
  "type": "object",
  "properties": {
    "calendarCode": {
      "description": "The identifier for the Calendar.",
      "maxLength": 60,
      "type": "string"
    },
    "schoolId": {
      "format": "int32",
      "description": "The identifier assigned to a school.",
      "type": "integer"
    },
    "schoolYear": {
      "format": "int32",
      "description": "The identifier for the school year associated with the Calendar.",
      "type": "integer"
    },
    "link": {
      "$ref": "link"
    }
  },
  "$schema": "http://json-schema.org/schema#"
}