{
  "required": [
    "id",
    "parentReference",
    "studentReference"
  ],
  "type": "object",
  "properties": {
    "id": {
      "description": "",
      "type": "string"
    },
    "parentReference": {
      "$ref": "edFi_parentReference"
    },
    "studentReference": {
      "$ref": "edFi_studentReference"
    },
    "contactPriority": {
      "format": "int32",
      "description": "The numeric order of the preferred sequence or priority of contact.",
      "type": "integer"
    },
    "contactRestrictions": {
      "description": "Restrictions for student and/or teacher contact with the individual (e.g., the student may not be picked up by the individual).",
      "maxLength": 250,
      "type": "string"
    },
    "emergencyContactStatus": {
      "description": "Indicator of whether the person is a designated emergency contact for the Student.",
      "type": "boolean"
    },
    "livesWith": {
      "description": "Indicator of whether the Student lives with the associated parent.",
      "type": "boolean"
    },
    "primaryContactStatus": {
      "description": "Indicator of whether the person is a primary parental contact for the Student.",
      "type": "boolean"
    },
    "relationDescriptor": {
      "description": "The nature of an individual's relationship to a student; for example:          Father, Mother, Step Father, Step Mother, Foster Father, Foster Mother, Guardian, etc.",
      "maxLength": 306,
      "type": "string"
    },
    "_etag": {
      "description": "A unique system-generated value that identifies the version of the resource.",
      "type": "string"
    }
  },
  "$schema": "http://json-schema.org/schema#"
}