{
  "required": [
    "licenseIdentifier",
    "licensingOrganization",
    "licenseTypeDescriptor",
    "id",
    "licenseEffectiveDate",
    "communityProviderReference"
  ],
  "type": "object",
  "properties": {
    "id": {
      "description": "",
      "type": "string"
    },
    "licenseIdentifier": {
      "description": "The unique identifier issued by the licensing organization.",
      "maxLength": 20,
      "type": "string",
      "x-Ed-Fi-isIdentity": true
    },
    "licensingOrganization": {
      "description": "The organization issuing the license.",
      "maxLength": 75,
      "type": "string",
      "x-Ed-Fi-isIdentity": true
    },
    "communityProviderReference": {
      "$ref": "edFi_communityProviderReference"
    },
    "authorizedFacilityCapacity": {
      "format": "int32",
      "description": "The maximum number that can be contained or accommodated which a provider is authorized or licensed to serve.",
      "type": "integer"
    },
    "licenseEffectiveDate": {
      "format": "date-time",
      "description": "The month, day, and year on which a license is active or becomes effective.",
      "type": "string"
    },
    "licenseExpirationDate": {
      "format": "date-time",
      "description": "The month, day, and year on which a license will expire.",
      "type": "string"
    },
    "licenseIssueDate": {
      "format": "date-time",
      "description": "The month, day, and year on which an active license was issued.",
      "type": "string"
    },
    "licenseStatusDescriptor": {
      "description": "An indication of the status of the license.",
      "maxLength": 306,
      "type": "string"
    },
    "licenseTypeDescriptor": {
      "description": "An indication of the category of the license.",
      "maxLength": 306,
      "type": "string"
    },
    "oldestAgeAuthorizedToServe": {
      "format": "int32",
      "description": "The oldest age of children a provider is authorized or licensed to serve.",
      "type": "integer"
    },
    "youngestAgeAuthorizedToServe": {
      "format": "int32",
      "description": "The youngest age of children a provider is authorized or licensed to serve.",
      "type": "integer"
    },
    "_etag": {
      "description": "A unique system-generated value that identifies the version of the resource.",
      "type": "string"
    }
  },
  "$schema": "http://json-schema.org/schema#"
}