{
  "required": [
    "beginDate"
  ],
  "type": "object",
  "properties": {
    "beginDate": {
      "format": "date-time",
      "description": "The month, day, and year for the start of the period.",
      "type": "string",
      "x-Ed-Fi-isIdentity": true
    },
    "endDate": {
      "format": "date-time",
      "description": "The month, day, and year for the end of the period.",
      "type": "string"
    }
  },
  "$schema": "http://json-schema.org/schema#"
}