{
  "required": [
    "gradeLevelDescriptor"
  ],
  "type": "object",
  "properties": {
    "gradeLevelDescriptor": {
      "description": "The grade levels for the specific learning standard.",
      "maxLength": 306,
      "type": "string",
      "x-Ed-Fi-isIdentity": true
    }
  },
  "$schema": "http://json-schema.org/schema#"
}