{
  "required": [
    "educationPlanDescriptor"
  ],
  "type": "object",
  "properties": {
    "educationPlanDescriptor": {
      "description": "The type of education plan(s) the student is following, if appropriate.",
      "maxLength": 306,
      "type": "string",
      "x-Ed-Fi-isIdentity": true
    }
  },
  "$schema": "http://json-schema.org/schema#"
}