{
  "required": [
    "incidentIdentifier",
    "schoolId",
    "studentUniqueId"
  ],
  "type": "object",
  "properties": {
    "incidentIdentifier": {
      "description": "A locally assigned unique identifier (within the school or school district) to identify each specific DisciplineIncident or occurrence. The same identifier should be used to document the entire DisciplineIncident even if it included multiple offenses and multiple offenders.",
      "maxLength": 20,
      "type": "string"
    },
    "schoolId": {
      "format": "int32",
      "description": "The identifier assigned to a school.",
      "type": "integer"
    },
    "studentUniqueId": {
      "description": "A unique alphanumeric code assigned to a student.",
      "maxLength": 32,
      "type": "string"
    },
    "link": {
      "$ref": "link"
    }
  },
  "$schema": "http://json-schema.org/schema#"
}