{
  "required": [
    "populationServedDescriptor"
  ],
  "type": "object",
  "properties": {
    "populationServedDescriptor": {
      "description": "A subset of students that are the focus of the InterventionStudy.",
      "maxLength": 306,
      "type": "string",
      "x-Ed-Fi-isIdentity": true
    }
  },
  "$schema": "http://json-schema.org/schema#"
}