{
  "required": [
    "learningStandardReference"
  ],
  "type": "object",
  "properties": {
    "learningStandardReference": {
      "$ref": "edFi_learningStandardReference"
    }
  },
  "$schema": "http://json-schema.org/schema#"
}