{
  "required": [
    "studentParticipationCodeDescriptor",
    "id",
    "disciplineIncidentReference",
    "studentReference"
  ],
  "type": "object",
  "properties": {
    "id": {
      "description": "",
      "type": "string"
    },
    "disciplineIncidentReference": {
      "$ref": "edFi_disciplineIncidentReference"
    },
    "studentReference": {
      "$ref": "edFi_studentReference"
    },
    "behaviors": {
      "description": "An unordered collection of studentDisciplineIncidentAssociationBehaviors. Describes behavior by category and provides a detailed description.",
      "type": "array",
      "items": {
        "$ref": "edFi_studentDisciplineIncidentAssociationBehavior"
      }
    },
    "studentParticipationCodeDescriptor": {
      "description": "The role or type of participation of a student in a discipline incident;           for example:          Victim          Perpetrator          Witness          Reporter.",
      "maxLength": 306,
      "type": "string"
    },
    "_etag": {
      "description": "A unique system-generated value that identifies the version of the resource.",
      "type": "string"
    }
  },
  "$schema": "http://json-schema.org/schema#"
}