{
  "required": [
    "tribalAffiliationDescriptor"
  ],
  "type": "object",
  "properties": {
    "tribalAffiliationDescriptor": {
      "description": "An American Indian tribe with which the staff member is affiliated.",
      "maxLength": 306,
      "type": "string",
      "x-Ed-Fi-isIdentity": true
    }
  },
  "$schema": "http://json-schema.org/schema#"
}