{
  "required": [
    "contactTitle",
    "electronicMailAddress",
    "id",
    "educationOrganizationReference",
    "staffReference"
  ],
  "type": "object",
  "properties": {
    "id": {
      "description": "",
      "type": "string"
    },
    "contactTitle": {
      "description": "The title of the contact in the context of the EducationOrganization.",
      "maxLength": 75,
      "type": "string",
      "x-Ed-Fi-isIdentity": true
    },
    "educationOrganizationReference": {
      "$ref": "edFi_educationOrganizationReference"
    },
    "staffReference": {
      "$ref": "edFi_staffReference"
    },
    "address": {
      "$ref": "edFi_staffEducationOrganizationContactAssociationAddress"
    },
    "contactTypeDescriptor": {
      "description": "Indicates the type for the contact information.",
      "maxLength": 306,
      "type": "string"
    },
    "electronicMailAddress": {
      "description": "The email for the contact associated with the EducationOrganization.",
      "maxLength": 128,
      "type": "string"
    },
    "telephones": {
      "description": "An unordered collection of staffEducationOrganizationContactAssociationTelephones. The optional telephone for the contact associated with the EducationOrganization.",
      "type": "array",
      "items": {
        "$ref": "edFi_staffEducationOrganizationContactAssociationTelephone"
      }
    },
    "_etag": {
      "description": "A unique system-generated value that identifies the version of the resource.",
      "type": "string"
    }
  },
  "$schema": "http://json-schema.org/schema#"
}