{
  "required": [
    "studentDisciplineIncidentAssociationReference"
  ],
  "type": "object",
  "properties": {
    "studentDisciplineIncidentAssociationReference": {
      "$ref": "edFi_studentDisciplineIncidentAssociationReference"
    }
  },
  "$schema": "http://json-schema.org/schema#"
}