{
  "required": [
    "credentialReference"
  ],
  "type": "object",
  "properties": {
    "credentialReference": {
      "$ref": "edFi_credentialReference"
    }
  },
  "$schema": "http://json-schema.org/schema#"
}