{
  "required": [
    "studentLearningObjectiveReference"
  ],
  "type": "object",
  "properties": {
    "studentLearningObjectiveReference": {
      "$ref": "edFi_studentLearningObjectiveReference"
    }
  },
  "$schema": "http://json-schema.org/schema#"
}