{
  "required": [
    "otherNameTypeDescriptor",
    "firstName",
    "lastSurname"
  ],
  "type": "object",
  "properties": {
    "otherNameTypeDescriptor": {
      "description": "The types of alternate names for a person.",
      "maxLength": 306,
      "type": "string",
      "x-Ed-Fi-isIdentity": true
    },
    "firstName": {
      "description": "A name given to an individual at birth, baptism, or during another naming ceremony, or through legal change.",
      "maxLength": 75,
      "type": "string"
    },
    "generationCodeSuffix": {
      "description": "An appendage, if any, used to denote an individual's generation in his family (e.g., Jr., Sr., III).",
      "maxLength": 10,
      "type": "string"
    },
    "lastSurname": {
      "description": "The name borne in common by members of a family.",
      "maxLength": 75,
      "type": "string"
    },
    "middleName": {
      "description": "A secondary name given to an individual at birth, baptism, or during another naming ceremony.",
      "maxLength": 75,
      "type": "string"
    },
    "personalTitlePrefix": {
      "description": "A prefix used to denote the title, degree, position, or seniority of the person.",
      "maxLength": 30,
      "type": "string"
    }
  },
  "$schema": "http://json-schema.org/schema#"
}