{
  "required": [
    "dateAssigned",
    "gradebookEntryTitle",
    "id",
    "sectionReference"
  ],
  "type": "object",
  "properties": {
    "id": {
      "description": "",
      "type": "string"
    },
    "dateAssigned": {
      "format": "date-time",
      "description": "The date the assignment, homework, or assessment was assigned or executed.",
      "type": "string",
      "x-Ed-Fi-isIdentity": true
    },
    "gradebookEntryTitle": {
      "description": "The name or title of the activity to be recorded in the GradebookEntry.",
      "maxLength": 60,
      "type": "string",
      "x-Ed-Fi-isIdentity": true
    },
    "gradingPeriodReference": {
      "$ref": "edFi_gradingPeriodReference"
    },
    "sectionReference": {
      "$ref": "edFi_sectionReference"
    },
    "description": {
      "description": "A description of the assignment, homework, or classroom assessment.",
      "maxLength": 1024,
      "type": "string"
    },
    "gradebookEntryTypeDescriptor": {
      "description": "The type of the GradebookEntry; for example, homework, assignment, quiz, unit test, oral presentation, etc.",
      "maxLength": 306,
      "type": "string"
    },
    "learningObjectives": {
      "description": "An unordered collection of gradebookEntryLearningObjectives. LearningObjectives associated with the GradebookEntry.",
      "type": "array",
      "items": {
        "$ref": "edFi_gradebookEntryLearningObjective"
      }
    },
    "learningStandards": {
      "description": "An unordered collection of gradebookEntryLearningStandards. LearningStandard(s) associated with the GradebookEntry.",
      "type": "array",
      "items": {
        "$ref": "edFi_gradebookEntryLearningStandard"
      }
    },
    "_etag": {
      "description": "A unique system-generated value that identifies the version of the resource.",
      "type": "string"
    }
  },
  "$schema": "http://json-schema.org/schema#"
}