{
  "required": [
    "beginDate",
    "localCourseCode",
    "schoolId",
    "schoolYear",
    "sectionIdentifier",
    "sessionName",
    "studentUniqueId"
  ],
  "type": "object",
  "properties": {
    "beginDate": {
      "format": "date-time",
      "description": "Month, day, and year of the Student's entry or assignment to the Section.",
      "type": "string"
    },
    "localCourseCode": {
      "description": "The local code assigned by the School that identifies the course offering provided for the instruction of students.",
      "maxLength": 60,
      "type": "string"
    },
    "schoolId": {
      "format": "int32",
      "description": "The identifier assigned to a school.",
      "type": "integer"
    },
    "schoolYear": {
      "format": "int32",
      "description": "The identifier for the school year.",
      "type": "integer"
    },
    "sectionIdentifier": {
      "description": "The local identifier assigned to a section.",
      "maxLength": 255,
      "type": "string"
    },
    "sessionName": {
      "description": "The identifier for the calendar for the academic session (e.g., 2010/11, 2011 Summer).",
      "maxLength": 60,
      "type": "string"
    },
    "studentUniqueId": {
      "description": "A unique alphanumeric code assigned to a student.",
      "maxLength": 32,
      "type": "string"
    },
    "link": {
      "$ref": "link"
    }
  },
  "$schema": "http://json-schema.org/schema#"
}