{
  "required": [
    "languageDescriptor"
  ],
  "type": "object",
  "properties": {
    "languageDescriptor": {
      "description": "A specification of which written or spoken communication is being used.",
      "maxLength": 306,
      "type": "string",
      "x-Ed-Fi-isIdentity": true
    },
    "uses": {
      "description": "An unordered collection of studentEducationOrganizationAssociationLanguageUses. A description of how the language is used (e.g. Home Language, Native Language, Spoken Language).",
      "type": "array",
      "items": {
        "$ref": "edFi_studentEducationOrganizationAssociationLanguageUse"
      }
    }
  },
  "$schema": "http://json-schema.org/schema#"
}