{
  "required": [
    "schoolYearTypeReference"
  ],
  "type": "object",
  "properties": {
    "cteGraduationRateInclusion": {
      "description": "An indication of whether CTE concentrators are included in the state's computation of its graduation rate.",
      "type": "boolean"
    },
    "schoolYearTypeReference": {
      "$ref": "edFi_schoolYearTypeReference"
    }
  },
  "$schema": "http://json-schema.org/schema#"
}