{
  "required": [
    "schoolYearTypeReference"
  ],
  "type": "object",
  "properties": {
    "monitoredDescriptor": {
      "description": "Student is monitored on content achievement who are no longer receiving services.",
      "maxLength": 306,
      "type": "string"
    },
    "participationDescriptor": {
      "description": "Field indicating the participation in the yearly English language assessment.",
      "maxLength": 306,
      "type": "string"
    },
    "proficiencyDescriptor": {
      "description": "The proficiency level for the yearly English language assessment.",
      "maxLength": 306,
      "type": "string"
    },
    "progressDescriptor": {
      "description": "The yearly progress or growth from last year s assessment.",
      "maxLength": 306,
      "type": "string"
    },
    "schoolYearTypeReference": {
      "$ref": "edFi_schoolYearTypeReference"
    }
  },
  "$schema": "http://json-schema.org/schema#"
}