{
  "required": [
    "diplomaTypeDescriptor",
    "diplomaAwardDate"
  ],
  "type": "object",
  "properties": {
    "diplomaTypeDescriptor": {
      "description": "The type of diploma/credential that is awarded to a student in recognition of his/her completion of the curricular requirements.",
      "maxLength": 306,
      "type": "string",
      "x-Ed-Fi-isIdentity": true
    },
    "diplomaAwardDate": {
      "format": "date-time",
      "description": "The month, day, and year on which the student met  graduation requirements and was awarded a diploma.",
      "type": "string",
      "x-Ed-Fi-isIdentity": true
    },
    "achievementCategoryDescriptor": {
      "description": "The category of achievement attributed to the learner.",
      "maxLength": 306,
      "type": "string"
    },
    "diplomaLevelDescriptor": {
      "description": "The level of diploma/credential that is awarded to a student in recognition of his/her completion of the curricular requirements.          Minimum high school program          Recommended high school program          Distinguished Achievement Program.",
      "maxLength": 306,
      "type": "string"
    },
    "achievementCategorySystem": {
      "description": "The system that defines the categories by which an achievement is attributed to the learner.",
      "maxLength": 60,
      "type": "string"
    },
    "achievementTitle": {
      "description": "The title assigned to the achievement.",
      "maxLength": 60,
      "type": "string"
    },
    "criteria": {
      "description": "The criteria for competency-based completion of the achievement/award.",
      "maxLength": 150,
      "type": "string"
    },
    "criteriaURL": {
      "description": "The Uniform Resource Locator (URL) for the unique address of a web page describing the competency-based completion criteria for the achievement/award.",
      "maxLength": 255,
      "type": "string"
    },
    "cteCompleter": {
      "description": "Indicated a student who reached a state-defined threshold of vocational education and who attained a high school diploma or its recognized state equivalent or GED.",
      "type": "boolean"
    },
    "diplomaAwardExpiresDate": {
      "format": "date-time",
      "description": "Date on which the award expires.",
      "type": "string"
    },
    "diplomaDescription": {
      "description": "The description of diploma given to the student for accomplishments.",
      "maxLength": 80,
      "type": "string"
    },
    "evidenceStatement": {
      "description": "A statement or reference describing the evidence that the learner met the criteria for attainment of the Achievement.",
      "maxLength": 150,
      "type": "string"
    },
    "imageURL": {
      "description": "The Uniform Resource Locator (URL) for the unique address of an image representing an award or badge associated with the Achievement.",
      "maxLength": 255,
      "type": "string"
    },
    "issuerName": {
      "description": "The name of the agent, entity, or institution issuing the element.",
      "maxLength": 150,
      "type": "string"
    },
    "issuerOriginURL": {
      "description": "The Uniform Resource Locator (URL) from which the award was issued.",
      "maxLength": 255,
      "type": "string"
    }
  },
  "$schema": "http://json-schema.org/schema#"
}