{
  "required": [
    "curriculumUsedDescriptor"
  ],
  "type": "object",
  "properties": {
    "curriculumUsedDescriptor": {
      "description": "The type of curriculum used in an early learning classroom or group.",
      "maxLength": 306,
      "type": "string",
      "x-Ed-Fi-isIdentity": true
    }
  },
  "$schema": "http://json-schema.org/schema#"
}