{
  "required": [
    "raceDescriptor"
  ],
  "type": "object",
  "properties": {
    "raceDescriptor": {
      "description": "The general racial category which most clearly reflects the individual's recognition of his or her community or with which the individual most identifies. The way this data element is listed, it must allow for multiple entries so that each individual can specify all appropriate races.",
      "maxLength": 306,
      "type": "string",
      "x-Ed-Fi-isIdentity": true
    }
  },
  "$schema": "http://json-schema.org/schema#"
}