{
  "required": [
    "studentUniqueId"
  ],
  "type": "object",
  "properties": {
    "studentUniqueId": {
      "format": "int32",
      "description": "A unique alphanumeric code assigned to a student.",
      "type": "string"
    },
    "link": {
      "$ref": "link"
    }
  },
  "$schema": "http://json-schema.org/schema#"
}